{
	"result": "ok",
	"data": {
		"current_page": 1,
		"data": [{
			"id": 1,
			"first_name": "Filippo",
			"last_name": "Riggio",
			"email": "filippo@kaleidoscope.it",
			"email_verified_at": null,
			"phone": "12341234",
			"enabled": 1,
			"role": "admin",
			"created_at": null,
			"updated_at": "2021-09-03T08:12:32.000000Z"
		},
			{
				"id": 17,
				"first_name": "Flaviana",
				"last_name": "Martini",
				"email": "caruso.moreno@example.com",
				"email_verified_at": "2021-08-12T13:43:36.000000Z",
				"phone": "+39 077 823 182",
				"enabled": 1,
				"role": "user",
				"created_at": "2021-08-12T10:23:23.000000Z",
				"updated_at": "2021-08-12T13:43:36.000000Z"
			}],
		"first_page_url": "https://solgroup.kaleidoscope.it/api/v1/user/paginated?limit=10&page=1",
		"from": 1,
		"last_page": 9,
		"last_page_url": "https://solgroup.kaleidoscope.it/api/v1/user/paginated?limit=10&page=9",
		"links": [
			{
				"url": null,
				"label": "&laquo; Previous",
				"active": false
			},
			{
				"url": "https://solgroup.kaleidoscope.it/api/v1/user/paginated?limit=10&page=1",
				"label": "1",
				"active": true
			},
			{
				"url": "https://solgroup.kaleidoscope.it/api/v1/user/paginated?limit=10&page=2",
				"label": "2",
				"active": false
			}
		],
		"next_page_url": "https://solgroup.kaleidoscope.it/api/v1/user/paginated?limit=10&page=2",
		"path": "https://solgroup.kaleidoscope.it/api/v1/user/paginated",
		"per_page": 10,
		"prev_page_url": null,
		"to": 10,
		"total": 81
	}
}